%YAML 1.1
%TAG !u! tag:unity3d.com,2011:
--- !u!1001 &3069748263432493813
PrefabInstance:
  m_ObjectHideFlags: 0
  serializedVersion: 2
  m_Modification:
    serializedVersion: 3
    m_TransformParent: {fileID: 0}
    m_Modifications:
    - target: {fileID: 1079995875298156407, guid: 95a46b481ee922b40bbfbde9e84e4a8f, type: 3}
      propertyPath: m_Name
      value: YouLoos
      objectReference: {fileID: 0}
    - target: {fileID: 3755959664434149247, guid: 95a46b481ee922b40bbfbde9e84e4a8f, type: 3}
      propertyPath: m_Name
      value: LooseGamePrefab Variant
      objectReference: {fileID: 0}
    - target: {fileID: 5025705256813817626, guid: 95a46b481ee922b40bbfbde9e84e4a8f, type: 3}
      propertyPath: m_Pivot.x
      value: 0.5
      objectReference: {fileID: 0}
    - target: {fileID: 5025705256813817626, guid: 95a46b481ee922b40bbfbde9e84e4a8f, type: 3}
      propertyPath: m_Pivot.y
      value: 0.5
      objectReference: {fileID: 0}
    - target: {fileID: 5025705256813817626, guid: 95a46b481ee922b40bbfbde9e84e4a8f, type: 3}
      propertyPath: m_AnchorMax.x
      value: 0.5
      objectReference: {fileID: 0}
    - target: {fileID: 5025705256813817626, guid: 95a46b481ee922b40bbfbde9e84e4a8f, type: 3}
      propertyPath: m_AnchorMax.y
      value: 0.5
      objectReference: {fileID: 0}
    - target: {fileID: 5025705256813817626, guid: 95a46b481ee922b40bbfbde9e84e4a8f, type: 3}
      propertyPath: m_AnchorMin.x
      value: 0.5
      objectReference: {fileID: 0}
    - target: {fileID: 5025705256813817626, guid: 95a46b481ee922b40bbfbde9e84e4a8f, type: 3}
      propertyPath: m_AnchorMin.y
      value: 0.5
      objectReference: {fileID: 0}
    - target: {fileID: 5025705256813817626, guid: 95a46b481ee922b40bbfbde9e84e4a8f, type: 3}
      propertyPath: m_SizeDelta.x
      value: 1920
      objectReference: {fileID: 0}
    - target: {fileID: 5025705256813817626, guid: 95a46b481ee922b40bbfbde9e84e4a8f, type: 3}
      propertyPath: m_SizeDelta.y
      value: 878.12
      objectReference: {fileID: 0}
    - target: {fileID: 5025705256813817626, guid: 95a46b481ee922b40bbfbde9e84e4a8f, type: 3}
      propertyPath: m_LocalPosition.x
      value: 0
      objectReference: {fileID: 0}
    - target: {fileID: 5025705256813817626, guid: 95a46b481ee922b40bbfbde9e84e4a8f, type: 3}
      propertyPath: m_LocalPosition.y
      value: 0
      objectReference: {fileID: 0}
    - target: {fileID: 5025705256813817626, guid: 95a46b481ee922b40bbfbde9e84e4a8f, type: 3}
      propertyPath: m_LocalPosition.z
      value: 0
      objectReference: {fileID: 0}
    - target: {fileID: 5025705256813817626, guid: 95a46b481ee922b40bbfbde9e84e4a8f, type: 3}
      propertyPath: m_LocalRotation.w
      value: 1
      objectReference: {fileID: 0}
    - target: {fileID: 5025705256813817626, guid: 95a46b481ee922b40bbfbde9e84e4a8f, type: 3}
      propertyPath: m_LocalRotation.x
      value: 0
      objectReference: {fileID: 0}
    - target: {fileID: 5025705256813817626, guid: 95a46b481ee922b40bbfbde9e84e4a8f, type: 3}
      propertyPath: m_LocalRotation.y
      value: 0
      objectReference: {fileID: 0}
    - target: {fileID: 5025705256813817626, guid: 95a46b481ee922b40bbfbde9e84e4a8f, type: 3}
      propertyPath: m_LocalRotation.z
      value: 0
      objectReference: {fileID: 0}
    - target: {fileID: 5025705256813817626, guid: 95a46b481ee922b40bbfbde9e84e4a8f, type: 3}
      propertyPath: m_AnchoredPosition.x
      value: 0.00012207
      objectReference: {fileID: 0}
    - target: {fileID: 5025705256813817626, guid: 95a46b481ee922b40bbfbde9e84e4a8f, type: 3}
      propertyPath: m_AnchoredPosition.y
      value: -0.0018616
      objectReference: {fileID: 0}
    - target: {fileID: 5025705256813817626, guid: 95a46b481ee922b40bbfbde9e84e4a8f, type: 3}
      propertyPath: m_LocalEulerAnglesHint.x
      value: 0
      objectReference: {fileID: 0}
    - target: {fileID: 5025705256813817626, guid: 95a46b481ee922b40bbfbde9e84e4a8f, type: 3}
      propertyPath: m_LocalEulerAnglesHint.y
      value: 0
      objectReference: {fileID: 0}
    - target: {fileID: 5025705256813817626, guid: 95a46b481ee922b40bbfbde9e84e4a8f, type: 3}
      propertyPath: m_LocalEulerAnglesHint.z
      value: 0
      objectReference: {fileID: 0}
    - target: {fileID: 8409869611478867542, guid: 95a46b481ee922b40bbfbde9e84e4a8f, type: 3}
      propertyPath: m_text
      value: YOU LOOSE
      objectReference: {fileID: 0}
    m_RemovedComponents: []
    m_RemovedGameObjects: []
    m_AddedGameObjects: []
    m_AddedComponents: []
  m_SourcePrefab: {fileID: 100100000, guid: 95a46b481ee922b40bbfbde9e84e4a8f, type: 3}
